Verilog/cpu/out.txt
Chronologic VCS simulator copyright 1991-2014
Contains Synopsys proprietary information.
Compiler version I-2014.03-2; Runtime version I-2014.03-2;  Dec  5 14:57 2017
VCD+ Writer I-2014.03-2 Copyright (c) 1991-2014 by Synopsys Inc.
#                   0 : rst 1 | err register : xxxx |

///////Instructions////////
IF Address: xxxx
IF  : xxxx | ID : xxxx | EX : xxxx | M : xxxx | WB : xxxx
////////Register File//////////
0 : xxxx | 1  : xxxx | 2  : xxxx | 3 : xxxx
4 : xxxx | 5  : xxxx | 6  : xxxx | 7 : xxxx
8 : xxxx | 9  : xxxx | A  : xxxx | B : xxxx
C : xxxx | D  : xxxx | E  : xxxx | F : xxxx

////////ALU//////////
 opcode: x | in1: xxxx | in2 : xxxx | result : xxxx | remainder : xxxx | zero : x | neg : x
/////////Writeback////////////
WB1: En : x | Wd : x | Wa : xxxx
WB2: En : x | Wd : x | Wa : xxxx
/////////////Buffers//////////////////////////////////////////

/////IF/ID/////
Address: 		In : xxxx | Out : xxxx | Lock : 0 | Flush : 0
Instruction: 		In : xxxx | Out : xxxx | Lock : 0 | Flush : 0

/////ID/EX////////
Controls: 		In : xxxxxxxxxx | Out : xxxxxxxxxx | Lock : 0 | Flush : 0
Instruction: 		In : xxxx | Out : xxxx | Lock : 0 | Flush : 0
Dat1: 			In : xxxx | Out : xxxx | Lock : 0 | Flush : 0 
Dat2: 			In : xxxx | Out : xxxx | Lock : 0 | Flush : 0 
Dat15: 			In : xxxx | Out : xxxx | Lock : 0 | Flush : 0
SE: 			In : xxxx | Out : xxxx | Lock : 0 | Flush : 0 
Address: 		In : xxxx | Out : xxxx | Lock : 0 | Flush : 0 

/////EX/M///////
Controls: 		In : xxxxxxxxx | Out : xxxxxxxxx | Lock : 0 | Flush : 0
Instruction: 		In : xxxx | Out : xxxx | Lock : 0 | Flush : 0
Result: 		In : xxxx | Out : xxxx | Lock : 0 | Flush : 0 
Remainder: 		In : xxxx | Out : xxxx | Lock : 0 | Flush : 0 
Dat1: 			In : xxxx | Out : xxxx | Lock : 0 | Flush : 0
Address: 		In : xxxx | Out : xxxx | Lock : 0 | Flush : 0

/////M/WB///////
Controls: 		In : xxxxx | Out : xxxxx | Lock : 0 | Flush : 0
Instruction: 		In : xxxx | Out : xxxx | Lock : 0 | Flush : 0
Result: 		In : xxxx | Out : xxxx | Lock : 0 | Flush : 0 
Remainder: 		In : xxxx | Out : xxxx | Lock : 0 | Flush : 0
Dat1: 			In : xxxx | Out : xxxx | Lock : 0 | Flush : 0 

////////////Multiplexers///////////
////////////IF//////////////
PC SRC: 		In1 : xxxx | In2 : xxxx | Sel : x | Out: xxxx
ERR:  			In1 : xxxx | In2 : xxxx | Sel : x | Out: xxxx
////////////EX///////////////
ALU SRC: 		In1 : xxxx | In2 : xxxx | Sel : x | Out: xxxx
ALU SRC2: 		In1 : xxxx | In2 : xxxx | Sel : x | Out: xxxx
HAZ1 			In1 : xxxx | In2 : xxxx | In3: xxxx | Sel : xx | Out: xxxx
HAZ2: 			In1 : xxxx | In2 : xxxx | In3: xxxx | Sel : xx | Out: xxxx
////////////WB///////////////
Mem to Reg:  		In1 : xxxx | In2 : xxxx | Sel : x | Out: xxxx
W2 Addr Src: 		In1 : x | In2 : f | Sel : x | Out: x





#                   5 : rst 1 | err register : 0xxx |

///////Instructions////////
IF Address: xxxx
IF  : xxxx | ID : xxxx | EX : xxxx | M : xxxx | WB : xxxx
////////Register File//////////
0 : xxxx | 1  : xxxx | 2  : xxxx | 3 : xxxx
4 : xxxx | 5  : xxxx | 6  : xxxx | 7 : xxxx
8 : xxxx | 9  : xxxx | A  : xxxx | B : xxxx
C : xxxx | D  : xxxx | E  : xxxx | F : xxxx

////////ALU//////////
 opcode: x | in1: xxxx | in2 : xxxx | result : xxxx | remainder : xxxx | zero : x | neg : x
/////////Writeback////////////
WB1: En : x | Wd : x | Wa : xxxx
WB2: En : x | Wd : x | Wa : xxxx
/////////////Buffers//////////////////////////////////////////

/////IF/ID/////
Address: 		In : xxxx | Out : xxxx | Lock : 0 | Flush : 0
Instruction: 		In : xxxx | Out : xxxx | Lock : 0 | Flush : 0

/////ID/EX////////
Controls: 		In : xxxxxxxxxx | Out : xxxxxxxxxx | Lock : 0 | Flush : 0
Instruction: 		In : xxxx | Out : xxxx | Lock : 0 | Flush : 0
Dat1: 			In : xxxx | Out : xxxx | Lock : 0 | Flush : 0 
Dat2: 			In : xxxx | Out : xxxx | Lock : 0 | Flush : 0 
Dat15: 			In : xxxx | Out : xxxx | Lock : 0 | Flush : 0
SE: 			In : xxxx | Out : xxxx | Lock : 0 | Flush : 0 
Address: 		In : xxxx | Out : xxxx | Lock : 0 | Flush : 0 

/////EX/M///////
Controls: 		In : xxxxxxxxx | Out : xxxxxxxxx | Lock : 0 | Flush : 0
Instruction: 		In : xxxx | Out : xxxx | Lock : 0 | Flush : 0
Result: 		In : xxxx | Out : xxxx | Lock : 0 | Flush : 0 
Remainder: 		In : xxxx | Out : xxxx | Lock : 0 | Flush : 0 
Dat1: 			In : xxxx | Out : xxxx | Lock : 0 | Flush : 0
Address: 		In : xxxx | Out : xxxx | Lock : 0 | Flush : 0

/////M/WB///////
Controls: 		In : xxxxx | Out : xxxxx | Lock : 0 | Flush : 0
Instruction: 		In : xxxx | Out : xxxx | Lock : 0 | Flush : 0
Result: 		In : xxxx | Out : xxxx | Lock : 0 | Flush : 0 
Remainder: 		In : xxxx | Out : xxxx | Lock : 0 | Flush : 0
Dat1: 			In : xxxx | Out : xxxx | Lock : 0 | Flush : 0 

////////////Multiplexers///////////
////////////IF//////////////
PC SRC: 		In1 : xxxx | In2 : xxxx | Sel : x | Out: xxxx
ERR:  			In1 : xxxx | In2 : 0000 | Sel : 0 | Out: xxxx
////////////EX///////////////
ALU SRC: 		In1 : xxxx | In2 : xxxx | Sel : x | Out: xxxx
ALU SRC2: 		In1 : xxxx | In2 : xxxx | Sel : x | Out: xxxx
HAZ1 			In1 : xxxx | In2 : xxxx | In3: xxxx | Sel : xx | Out: xxxx
HAZ2: 			In1 : xxxx | In2 : xxxx | In3: xxxx | Sel : xx | Out: xxxx
////////////WB///////////////
Mem to Reg:  		In1 : xxxx | In2 : xxxx | Sel : x | Out: xxxx
W2 Addr Src: 		In1 : x | In2 : f | Sel : x | Out: x





#                  10 : rst 0 | err register : 0000 |

///////Instructions////////
IF Address: 0000
IF  : f120 | ID : xxxx | EX : xxxx | M : xxxx | WB : xxxx
////////Register File//////////
0 : 0f00 | 1  : 0050 | 2  : ff0f | 3 : f0ff
4 : 0040 | 5  : 6666 | 6  : 00ff | 7 : ff88
8 : 0000 | 9  : 0000 | A  : 0000 | B : cccc
C : 0002 | D  : 0000 | E  : 0000 | F : 0000

////////ALU//////////
 opcode: x | in1: xxxx | in2 : xxxx | result : xxxx | remainder : xxxx | zero : x | neg : x
/////////Writeback////////////
WB1: En : x | Wd : x | Wa : xxxx
WB2: En : x | Wd : x | Wa : xxxx
/////////////Buffers//////////////////////////////////////////

/////IF/ID/////
Address: 		In : 0002 | Out : xxxx | Lock : 1 | Flush : 1
Instruction: 		In : f120 | Out : xxxx | Lock : 1 | Flush : 1

/////ID/EX////////
Controls: 		In : xxxxxxxxxx | Out : xxxxxxxxxx | Lock : 1 | Flush : 1
Instruction: 		In : xxxx | Out : xxxx | Lock : 1 | Flush : 1
Dat1: 			In : xxxx | Out : xxxx | Lock : 1 | Flush : 1 
Dat2: 			In : xxxx | Out : xxxx | Lock : 1 | Flush : 1 
Dat15: 			In : 0000 | Out : xxxx | Lock : 1 | Flush : 1
SE: 			In : xxxx | Out : xxxx | Lock : 1 | Flush : 1 
Address: 		In : xxxx | Out : xxxx | Lock : 1 | Flush : 1 

/////EX/M///////
Controls: 		In : xxxxxxxxx | Out : xxxxxxxxx | Lock : 1 | Flush : 1
Instruction: 		In : xxxx | Out : xxxx | Lock : 1 | Flush : 1
Result: 		In : xxxx | Out : xxxx | Lock : 1 | Flush : 1 
Remainder: 		In : xxxx | Out : xxxx | Lock : 1 | Flush : 1 
Dat1: 			In : xxxx | Out : xxxx | Lock : 1 | Flush : 1
Address: 		In : xxxx | Out : xxxx | Lock : 1 | Flush : 1

/////M/WB///////
Controls: 		In : xxxxx | Out : xxxxx | Lock : 1 | Flush : 1
Instruction: 		In : xxxx | Out : xxxx | Lock : 1 | Flush : 1
Result: 		In : xxxx | Out : xxxx | Lock : 1 | Flush : 1 
Remainder: 		In : xxxx | Out : xxxx | Lock : 1 | Flush : 1
Dat1: 			In : xxxx | Out : xxxx | Lock : 1 | Flush : 1 

////////////Multiplexers///////////
////////////IF//////////////
PC SRC: 		In1 : 0002 | In2 : xxxx | Sel : x | Out: xxxx
ERR:  			In1 : xxxx | In2 : 0000 | Sel : 0 | Out: xxxx
////////////EX///////////////
ALU SRC: 		In1 : xxxx | In2 : xxxx | Sel : x | Out: xxxx
ALU SRC2: 		In1 : xxxx | In2 : xxxx | Sel : x | Out: xxxx
HAZ1 			In1 : xxxx | In2 : xxxx | In3: xxxx | Sel : xx | Out: xxxx
HAZ2: 			In1 : xxxx | In2 : xxxx | In3: xxxx | Sel : xx | Out: xxxx
////////////WB///////////////
Mem to Reg:  		In1 : xxxx | In2 : xxxx | Sel : x | Out: xxxx
W2 Addr Src: 		In1 : x | In2 : f | Sel : x | Out: x





#                  15 : rst 0 | err register : 0000 |

///////Instructions////////
IF Address: 0000
IF  : f120 | ID : 0000 | EX : 0000 | M : 0000 | WB : 0000
////////Register File//////////
0 : 0f00 | 1  : 0050 | 2  : ff0f | 3 : f0ff
4 : 0040 | 5  : 6666 | 6  : 00ff | 7 : ff88
8 : 0000 | 9  : 0000 | A  : 0000 | B : cccc
C : 0002 | D  : 0000 | E  : 0000 | F : 0000

////////ALU//////////
 opcode: 0 | in1: 0000 | in2 : 0000 | result : 0000 | remainder : 0000 | zero : x | neg : x
/////////Writeback////////////
WB1: En : 0 | Wd : 0 | Wa : 0000
WB2: En : 0 | Wd : 0 | Wa : 0000
/////////////Buffers//////////////////////////////////////////

/////IF/ID/////
Address: 		In : 0002 | Out : 0000 | Lock : 1 | Flush : 1
Instruction: 		In : f120 | Out : 0000 | Lock : 1 | Flush : 1

/////ID/EX////////
Controls: 		In : xxxxxxxxxx | Out : 0000000000 | Lock : 1 | Flush : 1
Instruction: 		In : 0000 | Out : 0000 | Lock : 1 | Flush : 1
Dat1: 			In : xxxx | Out : 0000 | Lock : 1 | Flush : 1 
Dat2: 			In : xxxx | Out : 0000 | Lock : 1 | Flush : 1 
Dat15: 			In : 0000 | Out : 0000 | Lock : 1 | Flush : 1
SE: 			In : 0000 | Out : 0000 | Lock : 1 | Flush : 1 
Address: 		In : 0000 | Out : 0000 | Lock : 1 | Flush : 1 

/////EX/M///////
Controls: 		In : 0000000xx | Out : 000000000 | Lock : 1 | Flush : 1
Instruction: 		In : 0000 | Out : 0000 | Lock : 1 | Flush : 1
Result: 		In : 0000 | Out : 0000 | Lock : 1 | Flush : 1 
Remainder: 		In : 0000 | Out : 0000 | Lock : 1 | Flush : 1 
Dat1: 			In : 0000 | Out : 0000 | Lock : 1 | Flush : 1
Address: 		In : 0000 | Out : 0000 | Lock : 1 | Flush : 1

/////M/WB///////
Controls: 		In : 00000 | Out : 00000 | Lock : 1 | Flush : 1
Instruction: 		In : 0000 | Out : 0000 | Lock : 1 | Flush : 1
Result: 		In : xxxx | Out : 0000 | Lock : 1 | Flush : 1 
Remainder: 		In : 0000 | Out : 0000 | Lock : 1 | Flush : 1
Dat1: 			In : 0000 | Out : 0000 | Lock : 1 | Flush : 1 

////////////Multiplexers///////////
////////////IF//////////////
PC SRC: 		In1 : 0002 | In2 : 0000 | Sel : 0 | Out: 0002
ERR:  			In1 : 0002 | In2 : 0000 | Sel : 0 | Out: 0002
////////////EX///////////////
ALU SRC: 		In1 : 0000 | In2 : 0000 | Sel : 0 | Out: 0000
ALU SRC2: 		In1 : 0000 | In2 : 0000 | Sel : 0 | Out: 0000
HAZ1 			In1 : 0000 | In2 : 0000 | In3: 0000 | Sel : 00 | Out: 0000
HAZ2: 			In1 : 0000 | In2 : 0000 | In3: 0000 | Sel : 00 | Out: 0000
////////////WB///////////////
Mem to Reg:  		In1 : 0000 | In2 : 0000 | Sel : 0 | Out: 0000
W2 Addr Src: 		In1 : 0 | In2 : f | Sel : 0 | Out: 0





#                  20 : rst 1 | err register : 0000 |

///////Instructions////////
IF Address: 0000
IF  : f120 | ID : 0000 | EX : 0000 | M : 0000 | WB : 0000
////////Register File//////////
0 : 0f00 | 1  : 0050 | 2  : ff0f | 3 : f0ff
4 : 0040 | 5  : 6666 | 6  : 00ff | 7 : ff88
8 : 0000 | 9  : 0000 | A  : 0000 | B : cccc
C : 0002 | D  : 0000 | E  : 0000 | F : 0000

////////ALU//////////
 opcode: 0 | in1: 0000 | in2 : 0000 | result : 0000 | remainder : 0000 | zero : x | neg : x
/////////Writeback////////////
WB1: En : 0 | Wd : 0 | Wa : 0000
WB2: En : 0 | Wd : 0 | Wa : 0000
/////////////Buffers//////////////////////////////////////////

/////IF/ID/////
Address: 		In : 0002 | Out : 0000 | Lock : 0 | Flush : 0
Instruction: 		In : f120 | Out : 0000 | Lock : 0 | Flush : 0

/////ID/EX////////
Controls: 		In : xxxxxxxxxx | Out : 0000000000 | Lock : 0 | Flush : 0
Instruction: 		In : 0000 | Out : 0000 | Lock : 0 | Flush : 0
Dat1: 			In : xxxx | Out : 0000 | Lock : 0 | Flush : 0 
Dat2: 			In : xxxx | Out : 0000 | Lock : 0 | Flush : 0 
Dat15: 			In : 0000 | Out : 0000 | Lock : 0 | Flush : 0
SE: 			In : 0000 | Out : 0000 | Lock : 0 | Flush : 0 
Address: 		In : 0000 | Out : 0000 | Lock : 0 | Flush : 0 

/////EX/M///////
Controls: 		In : 0000000xx | Out : 000000000 | Lock : 0 | Flush : 0
Instruction: 		In : 0000 | Out : 0000 | Lock : 0 | Flush : 0
Result: 		In : 0000 | Out : 0000 | Lock : 0 | Flush : 0 
Remainder: 		In : 0000 | Out : 0000 | Lock : 0 | Flush : 0 
Dat1: 			In : 0000 | Out : 0000 | Lock : 0 | Flush : 0
Address: 		In : 0000 | Out : 0000 | Lock : 0 | Flush : 0

/////M/WB///////
Controls: 		In : 00000 | Out : 00000 | Lock : 0 | Flush : 0
Instruction: 		In : 0000 | Out : 0000 | Lock : 0 | Flush : 0
Result: 		In : xxxx | Out : 0000 | Lock : 0 | Flush : 0 
Remainder: 		In : 0000 | Out : 0000 | Lock : 0 | Flush : 0
Dat1: 			In : 0000 | Out : 0000 | Lock : 0 | Flush : 0 

////////////Multiplexers///////////
////////////IF//////////////
PC SRC: 		In1 : 0002 | In2 : 0000 | Sel : 0 | Out: 0002
ERR:  			In1 : 0002 | In2 : 0000 | Sel : 0 | Out: 0002
////////////EX///////////////
ALU SRC: 		In1 : 0000 | In2 : 0000 | Sel : 0 | Out: 0000
ALU SRC2: 		In1 : 0000 | In2 : 0000 | Sel : 0 | Out: 0000
HAZ1 			In1 : 0000 | In2 : 0000 | In3: 0000 | Sel : 00 | Out: 0000
HAZ2: 			In1 : 0000 | In2 : 0000 | In3: 0000 | Sel : 00 | Out: 0000
////////////WB///////////////
Mem to Reg:  		In1 : 0000 | In2 : 0000 | Sel : 0 | Out: 0000
W2 Addr Src: 		In1 : 0 | In2 : f | Sel : 0 | Out: 0





#                  25 : rst 1 | err register : 00xx |

///////Instructions////////
IF Address: 0002
IF  : f121 | ID : f120 | EX : 0000 | M : 0000 | WB : 0000
////////Register File//////////
0 : 0f00 | 1  : 0050 | 2  : ff0f | 3 : f0ff
4 : 0040 | 5  : 6666 | 6  : 00ff | 7 : ff88
8 : 0000 | 9  : 0000 | A  : 0000 | B : cccc
C : 0002 | D  : 0000 | E  : 0000 | F : 0000

////////ALU//////////
 opcode: 0 | in1: 0000 | in2 : 0000 | result : 0000 | remainder : 0000 | zero : x | neg : x
/////////Writeback////////////
WB1: En : 0 | Wd : 0 | Wa : 0000
WB2: En : 0 | Wd : 0 | Wa : 0000
/////////////Buffers//////////////////////////////////////////

/////IF/ID/////
Address: 		In : 0004 | Out : 0002 | Lock : 0 | Flush : 0
Instruction: 		In : f121 | Out : f120 | Lock : 0 | Flush : 0

/////ID/EX////////
Controls: 		In : 0001001000 | Out : xxxxxxxxxx | Lock : 0 | Flush : 0
Instruction: 		In : f120 | Out : 0000 | Lock : 0 | Flush : 0
Dat1: 			In : 0f00 | Out : 0f00 | Lock : 0 | Flush : 0 
Dat2: 			In : 0f00 | Out : 0f00 | Lock : 0 | Flush : 0 
Dat15: 			In : 0000 | Out : 0000 | Lock : 0 | Flush : 0
SE: 			In : 0020 | Out : 0000 | Lock : 0 | Flush : 0 
Address: 		In : 0002 | Out : 0000 | Lock : 0 | Flush : 0 

/////EX/M///////
Controls: 		In : xxxxxxxxx | Out : 0000000xx | Lock : 0 | Flush : 0
Instruction: 		In : 0000 | Out : 0000 | Lock : 0 | Flush : 0
Result: 		In : 0000 | Out : 0000 | Lock : 0 | Flush : 0 
Remainder: 		In : 0000 | Out : 0000 | Lock : 0 | Flush : 0 
Dat1: 			In : 0f00 | Out : 0000 | Lock : 0 | Flush : 0
Address: 		In : 0000 | Out : 0000 | Lock : 0 | Flush : 0

/////M/WB///////
Controls: 		In : 00000 | Out : 00000 | Lock : 0 | Flush : 0
Instruction: 		In : 0000 | Out : 0000 | Lock : 0 | Flush : 0
Result: 		In : xxxx | Out : xxxx | Lock : 0 | Flush : 0 
Remainder: 		In : 0000 | Out : 0000 | Lock : 0 | Flush : 0
Dat1: 			In : 0000 | Out : 0000 | Lock : 0 | Flush : 0 

////////////Multiplexers///////////
////////////IF//////////////
PC SRC: 		In1 : 0004 | In2 : 0000 | Sel : 0 | Out: 0004
ERR:  			In1 : 0004 | In2 : 0000 | Sel : 0 | Out: 0004
////////////EX///////////////
ALU SRC: 		In1 : 0f00 | In2 : 0000 | Sel : x | Out: 0000
ALU SRC2: 		In1 : 0f00 | In2 : 0000 | Sel : x | Out: 0000
HAZ1 			In1 : 0000 | In2 : 0000 | In3: 0000 | Sel : 00 | Out: 0000
HAZ2: 			In1 : 0000 | In2 : 0000 | In3: 0000 | Sel : 00 | Out: 0000
////////////WB///////////////
Mem to Reg:  		In1 : 0000 | In2 : xxxx | Sel : 0 | Out: 0000
W2 Addr Src: 		In1 : 0 | In2 : f | Sel : 0 | Out: 0





#                  35 : rst 1 | err register : 000x |

///////Instructions////////
IF Address: 0004
IF  : 93ff | ID : f121 | EX : f120 | M : 0000 | WB : 0000
////////Register File//////////
0 : 0f00 | 1  : 0050 | 2  : ff0f | 3 : f0ff
4 : 0040 | 5  : 6666 | 6  : 00ff | 7 : ff88
8 : 0000 | 9  : 0000 | A  : 0000 | B : cccc
C : 0002 | D  : 0000 | E  : 0000 | F : 0000

////////ALU//////////
 opcode: 0 | in1: 0050 | in2 : ff0f | result : ff5f | remainder : 0000 | zero : 0 | neg : 1
/////////Writeback////////////
WB1: En : 0 | Wd : 0 | Wa : 0000
WB2: En : 0 | Wd : 0 | Wa : 0000
/////////////Buffers//////////////////////////////////////////

/////IF/ID/////
Address: 		In : 0006 | Out : 0004 | Lock : 0 | Flush : 0
Instruction: 		In : 93ff | Out : f121 | Lock : 0 | Flush : 0

/////ID/EX////////
Controls: 		In : 0001001000 | Out : 0001001000 | Lock : 0 | Flush : 0
Instruction: 		In : f121 | Out : f120 | Lock : 0 | Flush : 0
Dat1: 			In : 0050 | Out : 0050 | Lock : 0 | Flush : 0 
Dat2: 			In : ff0f | Out : ff0f | Lock : 0 | Flush : 0 
Dat15: 			In : 0000 | Out : 0000 | Lock : 0 | Flush : 0
SE: 			In : 0021 | Out : 0020 | Lock : 0 | Flush : 0 
Address: 		In : 0004 | Out : 0002 | Lock : 0 | Flush : 0 

/////EX/M///////
Controls: 		In : 001000001 | Out : xxxxxxxxx | Lock : 0 | Flush : 0
Instruction: 		In : f120 | Out : 0000 | Lock : 0 | Flush : 0
Result: 		In : ff5f | Out : 0000 | Lock : 0 | Flush : 0 
Remainder: 		In : 0000 | Out : 0000 | Lock : 0 | Flush : 0 
Dat1: 			In : 0050 | Out : 0f00 | Lock : 0 | Flush : 0
Address: 		In : 0042 | Out : 0000 | Lock : 0 | Flush : 0

/////M/WB///////
Controls: 		In : xxxxx | Out : 00000 | Lock : 0 | Flush : 0
Instruction: 		In : 0000 | Out : 0000 | Lock : 0 | Flush : 0
Result: 		In : xxxx | Out : xxxx | Lock : 0 | Flush : 0 
Remainder: 		In : 0000 | Out : 0000 | Lock : 0 | Flush : 0
Dat1: 			In : 0000 | Out : 0000 | Lock : 0 | Flush : 0 

////////////Multiplexers///////////
////////////IF//////////////
PC SRC: 		In1 : 0006 | In2 : 0000 | Sel : 0 | Out: 0006
ERR:  			In1 : 0006 | In2 : 0000 | Sel : 0 | Out: 0006
////////////EX///////////////
ALU SRC: 		In1 : 0050 | In2 : 0020 | Sel : 0 | Out: 0050
ALU SRC2: 		In1 : ff0f | In2 : 0000 | Sel : 0 | Out: ff0f
HAZ1 			In1 : 0050 | In2 : 0000 | In3: 0000 | Sel : 00 | Out: 0050
HAZ2: 			In1 : ff0f | In2 : 0000 | In3: 0000 | Sel : 00 | Out: ff0f
////////////WB///////////////
Mem to Reg:  		In1 : 0000 | In2 : xxxx | Sel : 0 | Out: 0000
W2 Addr Src: 		In1 : 0 | In2 : f | Sel : 0 | Out: 0





#                  45 : rst 1 | err register : 0000 |

///////Instructions////////
IF Address: 0006
IF  : 834c | ID : 93ff | EX : f121 | M : f120 | WB : 0000
////////Register File//////////
0 : 0f00 | 1  : 0050 | 2  : ff0f | 3 : f0ff
4 : 0040 | 5  : 6666 | 6  : 00ff | 7 : ff88
8 : 0000 | 9  : 0000 | A  : 0000 | B : cccc
C : 0002 | D  : 0000 | E  : 0000 | F : 0000

////////ALU//////////
 opcode: 1 | in1: ff5f | in2 : ff0f | result : 0050 | remainder : 0000 | zero : 0 | neg : 1
/////////Writeback////////////
WB1: En : x | Wd : 0 | Wa : 0000
WB2: En : x | Wd : 0 | Wa : 0000
/////////////Buffers//////////////////////////////////////////

/////IF/ID/////
Address: 		In : 0008 | Out : 0006 | Lock : 0 | Flush : 0
Instruction: 		In : 834c | Out : 93ff | Lock : 0 | Flush : 0

/////ID/EX////////
Controls: 		In : 0001011000 | Out : 0001001000 | Lock : 0 | Flush : 0
Instruction: 		In : 93ff | Out : f121 | Lock : 0 | Flush : 0
Dat1: 			In : 0050 | Out : 0050 | Lock : 0 | Flush : 0 
Dat2: 			In : ff0f | Out : ff0f | Lock : 0 | Flush : 0 
Dat15: 			In : 0000 | Out : 0000 | Lock : 0 | Flush : 0
SE: 			In : ffff | Out : 0021 | Lock : 0 | Flush : 0 
Address: 		In : 0006 | Out : 0004 | Lock : 0 | Flush : 0 

/////EX/M///////
Controls: 		In : 001000001 | Out : 001000001 | Lock : 0 | Flush : 0
Instruction: 		In : f121 | Out : f120 | Lock : 0 | Flush : 0
Result: 		In : 0050 | Out : ff5f | Lock : 0 | Flush : 0 
Remainder: 		In : 0000 | Out : 0000 | Lock : 0 | Flush : 0 
Dat1: 			In : 0050 | Out : 0050 | Lock : 0 | Flush : 0
Address: 		In : 0046 | Out : 0042 | Lock : 0 | Flush : 0

/////M/WB///////
Controls: 		In : 00100 | Out : xxxxx | Lock : 0 | Flush : 0
Instruction: 		In : f120 | Out : 0000 | Lock : 0 | Flush : 0
Result: 		In : xxxx | Out : xxxx | Lock : 0 | Flush : 0 
Remainder: 		In : ff5f | Out : 0000 | Lock : 0 | Flush : 0
Dat1: 			In : 0000 | Out : 0000 | Lock : 0 | Flush : 0 

////////////Multiplexers///////////
////////////IF//////////////
PC SRC: 		In1 : 0008 | In2 : 0042 | Sel : 0 | Out: 0008
ERR:  			In1 : 0008 | In2 : 0000 | Sel : 0 | Out: 0008
////////////EX///////////////
ALU SRC: 		In1 : 0050 | In2 : 0021 | Sel : 0 | Out: 0050
ALU SRC2: 		In1 : ff0f | In2 : 0000 | Sel : 0 | Out: ff0f
HAZ1 			In1 : 0050 | In2 : ff5f | In3: 0000 | Sel : 01 | Out: ff5f
HAZ2: 			In1 : ff0f | In2 : ff5f | In3: 0000 | Sel : 00 | Out: ff0f
////////////WB///////////////
Mem to Reg:  		In1 : 0000 | In2 : xxxx | Sel : x | Out: 0000
W2 Addr Src: 		In1 : 0 | In2 : f | Sel : x | Out: 0





#                  55 : rst 1 | err register : 0000 |

///////Instructions////////
IF Address: 0008
IF  : f564 | ID : 834c | EX : 93ff | M : f121 | WB : f120
////////Register File//////////
0 : 0f00 | 1  : 0050 | 2  : ff0f | 3 : f0ff
4 : 0040 | 5  : 6666 | 6  : 00ff | 7 : ff88
8 : 0000 | 9  : 0000 | A  : 0000 | B : cccc
C : 0002 | D  : 0000 | E  : 0000 | F : 0000

////////ALU//////////
 opcode: f | in1: ffff | in2 : 0000 | result : 0050 | remainder : 0000 | zero : 0 | neg : 0
/////////Writeback////////////
WB1: En : 1 | Wd : 1 | Wa : ff5f
WB2: En : 0 | Wd : 2 | Wa : 0000
/////////////Buffers//////////////////////////////////////////

/////IF/ID/////
Address: 		In : 000a | Out : 0008 | Lock : 0 | Flush : 0
Instruction: 		In : f564 | Out : 834c | Lock : 0 | Flush : 0

/////ID/EX////////
Controls: 		In : 0001011000 | Out : 0001011000 | Lock : 0 | Flush : 0
Instruction: 		In : 834c | Out : 93ff | Lock : 0 | Flush : 0
Dat1: 			In : f0ff | Out : f0ff | Lock : 0 | Flush : 0 
Dat2: 			In : 0000 | Out : 0000 | Lock : 0 | Flush : 0 
Dat15: 			In : 0000 | Out : 0000 | Lock : 0 | Flush : 0
SE: 			In : 004c | Out : ffff | Lock : 0 | Flush : 0 
Address: 		In : 0008 | Out : 0006 | Lock : 0 | Flush : 0 

/////EX/M///////
Controls: 		In : 001000000 | Out : 001000001 | Lock : 0 | Flush : 0
Instruction: 		In : 93ff | Out : f121 | Lock : 0 | Flush : 0
Result: 		In : 0050 | Out : 0050 | Lock : 0 | Flush : 0 
Remainder: 		In : 0000 | Out : 0000 | Lock : 0 | Flush : 0 
Dat1: 			In : f0ff | Out : 0050 | Lock : 0 | Flush : 0
Address: 		In : 0004 | Out : 0046 | Lock : 0 | Flush : 0

/////M/WB///////
Controls: 		In : 00100 | Out : 00100 | Lock : 0 | Flush : 0
Instruction: 		In : f121 | Out : f120 | Lock : 0 | Flush : 0
Result: 		In : xxxx | Out : xxxx | Lock : 0 | Flush : 0 
Remainder: 		In : 0050 | Out : ff5f | Lock : 0 | Flush : 0
Dat1: 			In : 0000 | Out : 0000 | Lock : 0 | Flush : 0 

////////////Multiplexers///////////
////////////IF//////////////
PC SRC: 		In1 : 000a | In2 : 0046 | Sel : 0 | Out: 000a
ERR:  			In1 : 000a | In2 : 0000 | Sel : 0 | Out: 000a
////////////EX///////////////
ALU SRC: 		In1 : f0ff | In2 : ffff | Sel : 1 | Out: ffff
ALU SRC2: 		In1 : 0000 | In2 : 0000 | Sel : 0 | Out: 0000
HAZ1 			In1 : ffff | In2 : 0050 | In3: ff5f | Sel : 00 | Out: ffff
HAZ2: 			In1 : 0000 | In2 : 0050 | In3: ff5f | Sel : 00 | Out: 0000
////////////WB///////////////
Mem to Reg:  		In1 : ff5f | In2 : xxxx | Sel : 0 | Out: ff5f
W2 Addr Src: 		In1 : 2 | In2 : f | Sel : 0 | Out: 2





#                  65 : rst 1 | err register : 0000 |

///////Instructions////////
IF Address: 000a
IF  : f155 | ID : f564 | EX : 834c | M : 93ff | WB : f121
////////Register File//////////
0 : 0f00 | 1  : ff5f | 2  : ff0f | 3 : f0ff
4 : 0040 | 5  : 6666 | 6  : 00ff | 7 : ff88
8 : 0000 | 9  : 0000 | A  : 0000 | B : cccc
C : 0002 | D  : 0000 | E  : 0000 | F : 0000

////////ALU//////////
 opcode: c | in1: 0050 | in2 : 0040 | result : 0050 | remainder : 0000 | zero : 0 | neg : 1
/////////Writeback////////////
WB1: En : 1 | Wd : 1 | Wa : 0050
WB2: En : 0 | Wd : 2 | Wa : 0000
/////////////Buffers//////////////////////////////////////////

/////IF/ID/////
Address: 		In : 000c | Out : 000a | Lock : 0 | Flush : 0
Instruction: 		In : f155 | Out : f564 | Lock : 0 | Flush : 0

/////ID/EX////////
Controls: 		In : 0111001000 | Out : 0001011000 | Lock : 0 | Flush : 0
Instruction: 		In : f564 | Out : 834c | Lock : 0 | Flush : 0
Dat1: 			In : f0ff | Out : f0ff | Lock : 0 | Flush : 0 
Dat2: 			In : 0040 | Out : 0040 | Lock : 0 | Flush : 0 
Dat15: 			In : 0000 | Out : 0000 | Lock : 0 | Flush : 0
SE: 			In : 0064 | Out : 004c | Lock : 0 | Flush : 0 
Address: 		In : 000a | Out : 0008 | Lock : 0 | Flush : 0 

/////EX/M///////
Controls: 		In : 001000001 | Out : 001000000 | Lock : 0 | Flush : 0
Instruction: 		In : 834c | Out : 93ff | Lock : 0 | Flush : 0
Result: 		In : 0050 | Out : 0050 | Lock : 0 | Flush : 0 
Remainder: 		In : 0000 | Out : 0000 | Lock : 0 | Flush : 0 
Dat1: 			In : f0ff | Out : f0ff | Lock : 0 | Flush : 0
Address: 		In : 00a0 | Out : 0004 | Lock : 0 | Flush : 0

/////M/WB///////
Controls: 		In : 00100 | Out : 00100 | Lock : 0 | Flush : 0
Instruction: 		In : 93ff | Out : f121 | Lock : 0 | Flush : 0
Result: 		In : xxxx | Out : xxxx | Lock : 0 | Flush : 0 
Remainder: 		In : 0050 | Out : 0050 | Lock : 0 | Flush : 0
Dat1: 			In : 0000 | Out : 0000 | Lock : 0 | Flush : 0 

